{
  "project_info": {
    "project_number": "638225199271",
    "firebase_url": "https://cleanmeup.firebaseio.com",
    "project_id": "cleanmeup",
    "storage_bucket": "cleanmeup.appspot.com"
  },
  "client": [
    {
      "client_info": {
        "mobilesdk_app_id": "1:638225199271:android:3426e6320ef210be",
        "android_client_info": {
          "package_name": "com.hackathon.cleanmeup"
        }
      },
      "oauth_client": [
        {
          "client_id": "638225199271-vui9f5qu68lc0ntguk58t6h7nrgb52e4.apps.googleusercontent.com",
          "client_type": 3
        }
      ],
      "api_key": [
        {
          "current_key": "AIzaSyA-SlvwQPI7HNbrOoNZyQrxW_hQzn1Wf6A"
        }
      ],
      "services": {
        "appinvite_service": {
          "other_platform_oauth_client": [
            {
              "client_id": "638225199271-vui9f5qu68lc0ntguk58t6h7nrgb52e4.apps.googleusercontent.com",
              "client_type": 3
            }
          ]
        }
      }
    }
  ],
  "configuration_version": "1"
}